{
  "extends": ["tslint-react"],
  "rules": {
    "align": [true, "parameters", "arguments", "statements"],
    "ban": false,
    "class-name": true,
    "comment-format": [true, "check-space"],
    "curly": false,
    "eofline": false,
    "forin": false,
    "indent": [true, "spaces"],
    "interface-name": [true, "always-prefix"],
    "jsdoc-format": true,
    "jsx-no-lambda": false,
    "jsx-no-multiline-js": false,
    "jsx-boolean-value": false,
    "jsx-wrap-multiline": false,
    "label-position": true,
    "max-line-length": [true, 200],
    "no-any": false,
    "no-arg": true,
    "no-bitwise": false,
    "no-console": [true, "debug", "info", "time", "timeEnd", "trace"],
    "no-consecutive-blank-lines": true,
    "no-construct": true,
    "no-debugger": true,
    "no-duplicate-variable": true,
    "no-empty": true,
    "no-eval": true,
    "no-string-literal": false,
    "no-switch-case-fall-through": true,
    "no-trailing-whitespace": false,
    "no-unused-expression": true,
    "no-use-before-declare": true,
    "one-line": [true, "check-catch", "check-else", "check-open-brace", "check-whitespace"],
    "quotemark": [true, "single", "jsx-double"],
    "radix": true,
    "semicolon": [false, "always"],
    "switch-default": true,
    "trailing-comma": [false],
    "triple-equals": [false, "allow-null-check"],
    "typedef": [false, "parameter", "property-declaration"],
    "typedef-whitespace": [
      true,
      {
        "call-signature": "nospace",
        "index-signature": "nospace",
        "parameter": "nospace",
        "property-declaration": "nospace",
        "variable-declaration": "nospace"
      }
    ],
    "variable-name": [true, "ban-keywords", "check-format", "allow-leading-underscore", "allow-pascal-case"],
    "whitespace": [
      true,
      "check-branch",
      "check-decl",
      "check-module",
      "check-operator",
      "check-separator",
      "check-type",
      "check-typecast"
    ]
  },
  "linterOptions": {
    "exclude": ["config/**/*.js", "node_modules/**/*.ts", "coverage/lcov-report/*.js"]
  }
}
